{
  "providers": [
    "awscloudformation"
  ],
  "projectName": "Contractor",
  "version": "3.1",
  "frontend": "javascript",
  "javascript": {
    "framework": "ionic",
    "config": {
      "SourceDir": "src",
      "DistributionDir": "www",
      "BuildCommand": "npm.cmd run-script build",
      "StartCommand": "ionic serve"
    }
  }
}